{
    "allow_import": 1,
    "allow_rename": 1,
    "autoname": "field:title",
    "creation": "2013-01-10 16:34:24",
    "description": "Standard Terms and Conditions that can be added to Sales and Purchases.\n\nExamples:\n\n1. Validity of the offer.\n1. Payment Terms (In Advance, On Credit, part advance etc).\n1. What is extra (or payable by the Customer).\n1. Safety / usage warning.\n1. Warranty if any.\n1. Returns Policy.\n1. Terms of shipping, if applicable.\n1. Ways of addressing disputes, indemnity, liability, etc.\n1. Address and Contact of your Company.",
    "doctype": "DocType",
    "document_type": "Setup",
    "engine": "InnoDB",
    "field_order": [
     "title",
     "disabled",
     "applicable_modules_section",
     "selling",
     "buying",
     "section_break_7",
     "terms",
     "terms_and_conditions_help"
    ],
    "fields": [
     {
      "fieldname": "title",
      "fieldtype": "Data",
      "label": "Title",
      "no_copy": 1,
      "oldfieldname": "title",
      "oldfieldtype": "Data",
      "reqd": 1,
      "unique": 1
     },
     {
      "default": "0",
      "fieldname": "disabled",
      "fieldtype": "Check",
      "in_list_view": 1,
      "label": "Disabled"
     },
     {
      "allow_in_quick_entry": 1,
      "fieldname": "terms",
      "fieldtype": "Text Editor",
      "in_global_search": 1,
      "label": "Terms and Conditions",
      "oldfieldname": "terms",
      "oldfieldtype": "Text Editor"
     },
     {
      "fieldname": "terms_and_conditions_help",
      "fieldtype": "HTML",
      "label": "Terms and Conditions Help",
      "options": "<h4>Standard Terms and Conditions Example</h4>\n\n<pre>Delivery Terms for Order number {{ name }}\n\n-Order Date : {{ transaction_date }} \n-Expected Delivery Date : {{ delivery_date }}\n</pre>\n\n<h4>How to get fieldnames</h4>\n\n<p>The fieldnames you can use in your email template are the fields in the document from which you are sending the email. You can find out the fields of any documents via Setup &gt; Customize Form View and selecting the document type (e.g. Sales Invoice)</p>\n\n<h4>Templating</h4>\n\n<p>Templates are compiled using the Jinja Templating Language. To learn more about Jinja, <a class=\"strong\" href=\"http://jinja.pocoo.org/docs/dev/templates/\">read this documentation.</a></p>"
     },
     {
      "fieldname": "applicable_modules_section",
      "fieldtype": "Section Break",
      "label": "Applicable Modules"
     },
     {
      "default": "1",
      "fieldname": "selling",
      "fieldtype": "Check",
      "label": "Selling"
     },
     {
      "default": "1",
      "fieldname": "buying",
      "fieldtype": "Check",
      "label": "Buying"
     },
     {
      "fieldname": "section_break_7",
      "fieldtype": "Section Break"
     }
    ],
    "icon": "icon-legal",
    "idx": 1,
    "modified": "2022-06-16 15:07:38.094844",
    "modified_by": "Administrator",
    "module": "Setup",
    "name": "Terms and Conditions",
    "owner": "Administrator",
    "permissions": [
     {
      "create": 1,
      "delete": 1,
      "email": 1,
      "export": 1,
      "import": 1,
      "print": 1,
      "read": 1,
      "report": 1,
      "role": "Sales Master Manager",
      "share": 1,
      "write": 1
     },
     {
      "read": 1,
      "role": "Sales User"
     },
     {
      "read": 1,
      "role": "Purchase User"
     },
     {
      "create": 1,
      "delete": 1,
      "email": 1,
      "print": 1,
      "read": 1,
      "report": 1,
      "role": "System Manager",
      "share": 1,
      "write": 1
     },
     {
      "create": 1,
      "delete": 1,
      "email": 1,
      "print": 1,
      "read": 1,
      "report": 1,
      "role": "Accounts User",
      "share": 1,
      "write": 1
     },
     {
      "read": 1,
      "role": "Stock User"
     }
    ],
    "quick_entry": 1,
    "show_name_in_global_search": 1,
    "sort_field": "modified",
    "sort_order": "ASC"
   }
