{
 "content": null,
 "creation": "2020-10-08 18:30:56.661950",
 "docstatus": 0,
 "doctype": "Page",
 "idx": 0,
 "modified": "2020-10-08 18:32:01.947539",
 "modified_by": "Administrator",
 "module": "Venue",
 "name": "booking-credits",
 "owner": "Administrator",
 "page_name": "booking-credits",
 "roles": [
  {
   "role": "System Manager"
  },
  {
   "role": "Venue Manager"
  }
 ],
 "script": null,
 "standard": "Yes",
 "style": null,
 "system_page": 0,
 "title": "Booking Credits Balance"
}
