{
    "actions": [],
    "autoname": "hash",
    "creation": "2022-02-11 11:26:22.155183",
    "doctype": "DocType",
    "engine": "InnoDB",
    "field_order": [
     "barcode",
     "barcode_type",
     "uom"
    ],
    "fields": [
     {
      "fieldname": "barcode",
      "fieldtype": "Data",
      "in_global_search": 1,
      "in_list_view": 1,
      "label": "Barcode",
      "no_copy": 1,
      "reqd": 1,
      "unique": 1
     },
     {
      "fieldname": "barcode_type",
      "fieldtype": "Select",
      "in_list_view": 1,
      "label": "Barcode Type",
      "options": "\nEAN\nUPC-A"
    },
    {
     "fieldname": "uom",
     "fieldtype": "Link",
     "in_list_view": 1,
     "label": "UOM",
     "options": "UOM"
     }
    ],
    "istable": 1,
    "links": [],
    "modified": "2022-08-24 19:59:47.871677",
    "modified_by": "Administrator",
    "module": "Stock",
    "name": "Item Barcode",
    "naming_rule": "Random",
    "owner": "Administrator",
    "permissions": [],
    "sort_field": "modified",
    "sort_order": "DESC",
    "states": [],
    "track_changes": 1
   }
