{
 "actions": [],
 "creation": "2018-02-08 10:20:18.316801",
 "doctype": "DocType",
 "editable_grid": 1,
 "engine": "InnoDB",
 "field_order": [
  "template_name",
  "mapping"
 ],
 "fields": [
  {
   "fieldname": "template_name",
   "fieldtype": "Data",
   "in_list_view": 1,
   "label": "Template Name",
   "reqd": 1
  },
  {
   "fieldname": "mapping",
   "fieldtype": "Table",
   "label": "Cash Flow Mapping",
   "options": "Cash Flow Mapping Template Details",
   "reqd": 1
  }
 ],
 "links": [],
 "modified": "2022-08-03 15:51:06.298865",
 "modified_by": "Administrator",
 "module": "Accounts",
 "name": "Cash Flow Mapping Template",
 "owner": "Administrator",
 "permissions": [
  {
   "create": 1,
   "delete": 1,
   "email": 1,
   "export": 1,
   "print": 1,
   "read": 1,
   "report": 1,
   "role": "System Manager",
   "share": 1,
   "write": 1
  }
 ],
 "quick_entry": 1,
 "sort_field": "modified",
 "sort_order": "DESC",
 "states": [],
 "track_changes": 1
}